Source name,Genus,Species
Ensete,Ensete,Ensete
Musa,Musa,Musa
[AAA] Cavendish,Musa,subgr. Cavendish
[AAA] Mutika,Musa,subgr. Mutika/Lujugira
[AAB] Plantain,Musa,subgr. Plantain
[AAB] Pome - Prata,Musa,subgr. Pome
[AAB] Popoulou - Maia Maoli,Musa,subgr. Maia Maoli/Popoulu
[AAB] Silk,Musa,subgr. Silk
[ABB] Bluggoe,Musa,subgr. Bluggoe
[ABB] Monthan,Musa,subgr. Monthan
[ABB] Pisang Awak,Musa,subgr. Pisang Awak
Edible AA diploid,Musa,AA
Ensete glaucum,Ensete,glaucum
Ensete homblei,Ensete,homblei
Ensete lasiocarpum,Ensete,lasiocarpum
Ensete livingstonianum,Ensete,Ensete
Ensete perrieri,Ensete,perrieri
Ensete superbum,Ensete,superbum
Ensete ventricosum,Ensete,ventricosum
Musa × paradisiaca,Musa,Musa
Musa AAAB,Musa,AAAB
Musa AAA,Musa,AAA
Musa AAB,Musa,AAB
Musa AA,Musa,AA
Musa ABB,Musa,ABB
Musa acuminata,Musa,acuminata
Musa aurantiaca,Musa,Musa
Musa balbisiana,Musa,balbisiana
Musa basjoo,Musa,basjoo
Musa beccarii,Musa,beccarii
Musa boman,Musa,boman
Musa borneensis,Musa,borneensis
Musa campestris,Musa,campestris
Musa coccinea,Musa,coccinea
Musa exotica,Musa,Musa
Musa fehi,Musa,Fe'i
Musa fei,Musa,Fe'i
Musa gracilis,Musa,gracilis
Musa ingens,Musa,ingens
Musa insularimontana,Musa,Musa
Musa itinerans,Musa,itinerans
Musa jackeyi,Musa,jackeyi
Musa laterita,Musa,laterita
Musa lolodensis,Musa,lolodensis
Musa maclayi,Musa,maclayi
Musa mannii,Musa,mannii
Musa mexicana,Musa,Musa
Musa monticola,Musa,monticola
Musa nagensium,Musa,nagensium
Musa ornata,Musa,ornata
Musa paracoccinea,Musa,Musa
Musa peekelii,Musa,peekelii
Musa rubra,Musa,rubra
Musa sanguinea,Musa,sanguinea
Musa sapientium,Musa,Musa
Musa schizocarpa,Musa,schizocarpa
Musa sikkimensis,Musa,sikkimensis
Musa textilis × musa,Musa,Musa
Musa textilis,Musa,textilis
Musa troglodytarum,Musa,Fe'i
Musa velutina,Musa,velutina
Musa violascens,Musa,violascens
Musa yamiensis,Musa,Musa
Musa AA subgr. Jari Buaya,Musa,subgr. Pisang Jari Buaya
Musa AA subgr. Mlali,Musa,subgr. Mshare
Musa AA subgr. Sucrier,Musa,subgr. Sucrier
Musa AAA subgr. Ambon,Musa,subgr. Ambon
Musa AAA subgr. bluggoe,Musa,subgr. Bluggoe
Musa AAA subgr. Cavendish,Musa,subgr. Cavendish
Musa AAA subgr. Gros Michel,Musa,subgr. Gros Michel
Musa AAA subgr. Ilayi,Musa,AAA
Musa AAA subgr. Mutika/Lujugira,Musa,subgr. Mutika/Lujugira
Musa AAA subgr. Red,Musa,subgr. Red
Musa AAA subgr. Silk,Musa,subgr. Silk
Musa AAB subgr. Iholena,Musa,subgr. Iholena
Musa AAB subgr. Laknao,Musa,subgr. Laknao
Musa AAB subgr. Maia Maoli/Popoulu,Musa,subgr. Maia Maoli/Popoulu
Musa AAB subgr. Mysore,Musa,subgr. Mysore
Musa AAB subgr. Pisang Kelat,Musa,subgr. Pisang Kelat
Musa AAB subgr. plantain,Musa,subgr. Plantain
Musa AAB subgr. Plantain,Musa,subgr. Plantain
Musa AAB subgr. Pome,Musa,subgr. Pome
Musa AAB subgr. Silk,Musa,subgr. Silk
Musa ABB subgr. bluggoe,Musa,subgr. Bluggoe
Musa ABB subgr. Bluggoe,Musa,subgr. Bluggoe
Musa ABB subgr. Monthan,Musa,subgr. Monthan
Musa ABB subgr. Ney Mannan,Musa,subgr. Ney Mannan
Musa ABB subgr. Pelipita,Musa,subgr. Pelipita
Musa ABB subgr. Pisang Awak,Musa,subgr. Pisang Awak
Musa ABB subgr. Saba,Musa,subgr. Saba
Musa acuminata subsp. banksii,Musa,subsp. banksii
Musa acuminata subsp. burmannicca,Musa,subsp. burmannica
Musa acuminata subsp. errans,Musa,subsp. errans
Musa acuminata subsp. halabanensis,Musa,subgr. halabanensis
Musa acuminata subsp. malaccensis,Musa,subsp. malaccensis
Musa acuminata subsp. microcarpa,Musa,subsp. microcarpa
Musa acuminata subsp. siamea,Musa,subsp. siamea
Musa acuminata subsp. sumatrana,Musa,subsp. sumatrana
Musa acuminata subsp. tomentosa,Musa,var. tomentosa
Musa acuminata var. tomentosa,Musa,var. tomentosa
Musa acuminata subsp. zebrina,Musa,subsp. zebrina
Musa balbisiana var. andamanica,Musa,var. andamanica
Musa balbisiana var. brachycarpa,Musa,var. brachycarpa
Musa balbisiana var. liukiuensis,Musa,var. liukiuensis
Musa itinerans var. annamica,Musa,var. annamica
Musa itinerans var. chinensis,Musa,var. chinensis
Musa itinerans var. guangdongensis,Musa,var. guangdongensis
Musa itinerans var. kavalanensis,Musa,var. kavalanensis
Musa itinerans var. lechangensis,Musa,var. lechangensis
Musa itinerans var. xishuangbannaensis,Musa,var. xishuangbannaensis
Musa maclayi subsp. ailuluai,Musa,subsp. ailuluai
Musa maclayi subsp. maclayi,Musa,subsp. maclayi
Musa peekelii subsp. angustigemma,Musa,subsp. angustigemma
Musa peekelii subsp. peekelii,Musa,subsp. peekelii
